^C:\WORK\CODE\SELF-STUDY2\TEST2\TEST2\DEBUG\AUNG.OBJ|C:\WORK\CODE\SELF-STUDY2\TEST2\TEST2\DEBUG\PCH.OBJ|C:\WORK\CODE\SELF-STUDY2\TEST2\TEST2\DEBUG\TEST2.OBJ
C:\WORK\CODE\SELF-STUDY2\TEST2\TEST2\DEBUG\AUNG.OBJ
C:\WINDOWS\SYSTEM32\TZRES.DLL
C:\WORK\CODE\SELF-STUDY2\TEST2\TEST2\DEBUG\PCH.OBJ
C:\WORK\CODE\SELF-STUDY2\TEST2\TEST2\DEBUG\TEST2.OBJ
C:\WINDOWS\GLOBALIZATION\SORTING\SORTDEFAULT.NLS
